21,Refrigerator,NORCOLD,4,18,69D x 36W x 24H,6553,
22,Refrigerator,ZLine,8,21,29D x 36W x 70H,2245,
23,Refrigerator,NORCOLD,14,12,68D x 37W x 28H,1589,
24,Refrigerator,Summit,34,3,23D x 53W x 42H,500,
25,Refrigerator,Vitrifrigo,9,2,15D x 44W x 35H,300,
26,Refrigerator,ACCUCOLD,20,14,11D x 11W x 11H,1000,
27,Refrigerator,FORTÉ,45,11,36D x 32W x 77H,700,
28,Refrigerator,FORTÉ,2,8,28D x 32W x 80H,500,
29,Refrigerator,Blaze,15,8,33D x 23W x 34H,4400,
30,Refrigerator,Galanz,10,18,32D x 27W x 70H,2999,