31,TV,VIZIO,10,LCD,1080p,60Hz,40,126,
32,TV,SAMSUNG,3,LED,4K,120Hz,65,2123,
33,TV,Fire,40,LED,4K,60Hz,55,400,
34,TV,TCL,79,LED,1080p,60Hz,32,300,
35,TV,SAMSUNG,12,LCD,1080p,60Hz,32,500,
36,TV,Supersonic,300,LED,1080p,60Hz,13,700,
37,TV,LG,8,PDP,1080p,60Hz,70,500,
38,TV,SONY,32,MiniLed,4K,120Hz,90,6000,
39,TV,SAMSUNG,3,LCD,1080p,60Hz,55,900,
40,TV,Artel,69,PDP,720p,60Hz,33,120,